ScanID,cwdID,Species,Sex,GMU,DAU,Results,PointValue,RiskCategory,CollectDate,CollectedBy,intersection,Hunt Area,geometry
21005883,23290,White-tailed Deer,Male,11A,Northern Ag,NOT DETECTED,7.32,Found Dead,2021-08-07,CJ Earl Walters,4,Portion of Unit 11A,"c(-116.02342, 46.02969)"
21000336,23381,White-tailed Deer,Female,11A,Northern Ag,NOT DETECTED,7.32,Found Dead,2021-08-20,Mark Shepard,4,Portion of Unit 11A,"c(-116.00008, 46.08729)"
22000519,23779,White-tailed Deer,Female,14,Central Forest,NOT DETECTED,1.3,Hunter Harvest,2021-10-17,Weimer,1,Unit 14,"c(-116.12545, 45.816514)"
22000516,23784,Mule Deer,Female,14,Lower Salmon,NOT DETECTED,0.55,Hunter Harvest,2021-10-17,Dauwalter,1,Unit 14,"c(-116.094649, 45.821419)"
22000683,23785,White-tailed Deer,Female,18,Central Forest,NOT DETECTED,1.3,Hunter Harvest,2021-10-17,Switalski,6,Portion of Unit 18,"c(-116.419272, 45.531531)"
22000518,23798,White-tailed Deer,Male,18,Central Forest,NOT DETECTED,3.23,Hunter Harvest,2021-10-17,Lyon,6,Portion of Unit 18,"c(-116.428672, 45.370751)"
22000593,23809,White-tailed Deer,Male,18,Central Forest,NOT DETECTED,1,Hunter Harvest,2021-10-17,Betsy Wagner,6,Portion of Unit 18,"c(-116.392615, 45.541594)"
22000558,23824,White-tailed Deer,Male,15,Central Forest,NOT DETECTED,1,Hunter Harvest,2021-10-17,B Wagner,2,Unit 15,"c(-115.91724, 45.90463)"
22000571,23825,White-tailed Deer,Male,13,Northern Ag,NOT DETECTED,1,Hunter Harvest,2021-10-17,Lyon,5,Portion of Unit 13,"c(-116.464732, 45.867254)"
22000563,23837,White-tailed Deer,Male,11A,Northern Ag,NOT DETECTED,3.23,Hunter Harvest,2021-10-17,Lyon,4,Portion of Unit 11A,"c(-116.132578, 45.944515)"
22000617,23847,White-tailed Deer,Male,15,Central Forest,NOT DETECTED,3.23,Hunter Harvest,2021-10-17,Becca Lyons,2,Unit 15,"c(-115.917923, 45.90158)"
22000509,23848,White-tailed Deer,Female,18,Central Forest,NOT DETECTED,0.85,Hunter Harvest,2021-10-17,Wagner,6,Portion of Unit 18,"c(-116.383002, 45.533899)"
22000602,23855,White-tailed Deer,Female,14,Central Forest,NOT DETECTED,1.3,Hunter Harvest,2021-10-16,E Papenburg,1,Unit 14,"c(-116.290111, 45.699271)"
22000696,23856,Mule Deer,Male,23,Weiser-McCall,NOT DETECTED,0.21,Hunter Harvest,2021-10-16,E Papenburg,3,Portion of Unit 23,"c(-116.356406, 45.361821)"
22000588,23857,White-tailed Deer,Male,14,Central Forest,NOT DETECTED,1,Hunter Harvest,2021-10-17,Papenburg,1,Unit 14,"c(-115.91423, 45.56008)"
22000514,23860,Mule Deer,Male,23,Weiser-McCall,NOT DETECTED,1,Hunter Harvest,2021-10-16,Struthers,3,Portion of Unit 23,"c(-116.234372, 45.197856)"
22000694,23865,White-tailed Deer,Female,14,Central Forest,NOT DETECTED,0.85,Hunter Harvest,2021-10-16,Becca Lyon,1,Unit 14,"c(-116.292242, 45.727163)"
22000690,23870,White-tailed Deer,Female,14,Central Forest,NOT DETECTED,1.3,Hunter Harvest,2021-10-16,E Papenburg,1,Unit 14,"c(-116.271685, 45.778478)"
22000691,23872,Mule Deer,Male,15,Bitterroot,NOT DETECTED,1,Hunter Harvest,2021-10-16,A Switalski,2,Unit 15,"c(-116.073191, 45.867863)"
22000513,23873,White-tailed Deer,Female,14,Central Forest,NOT DETECTED,0.85,Hunter Harvest,2021-10-16,Papenburg,1,Unit 14,"c(-116.250293, 45.803735)"
22000580,23874,Mule Deer,Male,23,Weiser-McCall,NOT DETECTED,1,Hunter Harvest,2021-10-17,Switalski,3,Portion of Unit 23,"c(-116.316418, 45.297726)"
22000618,23887,White-tailed Deer,Male,14,Central Forest,NOT DETECTED,3.23,Hunter Harvest,2021-10-17,Wagner,1,Unit 14,"c(-116.26938, 45.840788)"
22000647,23889,Mule Deer,Male,14,Lower Salmon,NOT DETECTED,1,Hunter Harvest,2021-10-17,Wagner,1,Unit 14,"c(-116.232215, 45.633725)"
22000599,23895,White-tailed Deer,Female,23,Central Forest,NOT DETECTED,0.85,Hunter Harvest,2021-10-17,Wiemer,3,Portion of Unit 23,"c(-116.043045, 45.261143)"
22000688,23897,White-tailed Deer,Male,14,Central Forest,NOT DETECTED,3.23,Hunter Harvest,2021-10-16,Papenburg,1,Unit 14,"c(-116.174462, 45.533054)"
22000545,23903,Mule Deer,Female,14,Lower Salmon,NOT DETECTED,0.55,Hunter Harvest,2021-10-16,Papenburg,1,Unit 14,"c(-116.149197, 45.724709)"
22000670,23917,White-tailed Deer,Male,15,Central Forest,NOT DETECTED,3.23,Hunter Harvest,2021-10-16,Struthers,2,Unit 15,"c(-115.956951, 45.883023)"
22000535,23920,White-tailed Deer,Male,15,Central Forest,NOT DETECTED,0,Hunter Harvest,2021-10-16,NA,2,Unit 15,"c(-115.357714, 45.761337)"
22000529,23934,Mule Deer,Male,23,Weiser-McCall,NOT DETECTED,1,Hunter Harvest,2021-10-16,Switalski,3,Portion of Unit 23,"c(-116.210683, 45.217691)"
22000693,23936,White-tailed Deer,Male,14,Central Forest,NOT DETECTED,1,Hunter Harvest,2021-10-16,Papenburg,1,Unit 14,"c(-116.184965, 45.833134)"
22000697,23941,White-tailed Deer,Female,14,Central Forest,NOT DETECTED,1.3,Hunter Harvest,2021-10-16,Borg,1,Unit 14,"c(-116.167112, 45.828828)"
22000692,23951,Mule Deer,Male,23,Weiser-McCall,NOT DETECTED,1,Hunter Harvest,2021-10-16,Struthers,3,Portion of Unit 23,"c(-116.295296, 45.19872)"
22000633,23955,Elk,Male,18,Lower Salmon,NOT DETECTED,0.19,Hunter Harvest,2021-10-17,Ralbousky,6,Portion of Unit 18,"c(-116.313277, 45.464741)"
21001440,24015,White-tailed Deer,Female,14,Central Forest,NOT DETECTED,0.85,Hunter Harvest,2021-10-17,Josh Leal,1,Unit 14,"c(-116.175352, 45.802506)"
22003048,24084,Mule Deer,Male,14,Lower Salmon,NOT DETECTED,1,Hunter Harvest,2021-10-12,Alan Trees  Hunter,1,Unit 14,"c(-116.250411, 45.636125)"
22001829,24085,Mule Deer,Male,11A,Lower Salmon,NOT DETECTED,1,Hunter Harvest,2021-10-17,McDonough,4,Portion of Unit 11A,"c(-116.09317, 46.016505)"
22000972,24098,Elk,Male,14,Lower Salmon,NOT DETECTED,0.1,Found Dead,2021-09-14,Shepard,1,Unit 14,"c(-116.212388, 45.917953)"
22001499,24170,Elk,Male,15,Bitterroot,NOT DETECTED,0.19,Hunter Harvest,2021-10-16,Mark Shepard,2,Unit 15,"c(-115.455942, 45.876594)"
22000902,24175,White-tailed Deer,Male,15,Central Forest,NOT DETECTED,3.23,Hunter Harvest,2021-10-17,Randy Sullivan,2,Unit 15,"c(-115.914232, 45.901281)"
21001155,24379,White-tailed Deer,Male,13,Northern Ag,NOT DETECTED,3.23,Hunter Harvest,2021-10-16,Sean West,5,Portion of Unit 13,"c(-116.467993, 45.850995)"
22003182,24469,Mule Deer,Male,14,Lower Salmon,DETECTED,1,Hunter Harvest,2021-10-22,Steve Lozano,1,Unit 14,"c(-116.230833, 45.609167)"
22003310,24544,Elk,Male,23,Weiser-McCall,NOT DETECTED,0.19,Hunter Harvest,2021-10-16,Cameron Sena,3,Portion of Unit 23,"c(-116.28164, 45.192534)"
22000646,24546,White-tailed Deer,Female,23,Central Forest,NOT DETECTED,0.22,Roadkill,2021-10-18,Brendan Smith,3,Portion of Unit 23,"c(-116.308813, 45.204297)"
22003301,24547,Mule Deer,Male,18,Lower Salmon,NOT DETECTED,1,Hunter Harvest,2021-10-16,Marshall Haynes,6,Portion of Unit 18,"c(-116.47925, 45.36868)"
22000614,24548,White-tailed Deer,Female,23,Central Forest,NOT DETECTED,0.22,Roadkill,2021-10-25,Brendan Smith,3,Portion of Unit 23,"c(-116.320975, 45.22579)"
21001503,24627,White-tailed Deer,Female,13,Northern Ag,NOT DETECTED,0.85,Hunter Harvest,2021-10-28,Weimer,5,Portion of Unit 13,"c(-116.460783, 45.837243)"
22000904,24648,White-tailed Deer,Female,15,Central Forest,NOT DETECTED,1.3,Hunter Harvest,2021-11-01,Randy Sullivan,2,Unit 15,"c(-116.095842, 45.91383)"
22000903,24649,White-tailed Deer,Female,15,Central Forest,NOT DETECTED,1.3,Hunter Harvest,2021-10-19,Randy Sullivan,2,Unit 15,"c(-116.062681, 45.889106)"
22001295,24651,Mule Deer,Male,18,Lower Salmon,NOT DETECTED,1,Hunter Harvest,2021-11-01,Pfander,6,Portion of Unit 18,"c(-116.35217, 45.454059)"
21001263,24705,White-tailed Deer,Female,15,Central Forest,NOT DETECTED,1.3,Hunter Harvest,2021-11-01,Mark Lowles,2,Unit 15,"c(-116.039055, 45.657723)"
22003191,24757,Mule Deer,Male,14,Lower Salmon,DETECTED,1,Hunter Harvest,2021-10-20,Martin,1,Unit 14,"c(-116.230833, 45.609167)"
22003163,26817,Mule Deer,Male,14,Lower Salmon,NOT DETECTED,1,Hunter Harvest,2021-11-05,Ryan Kahre,1,Unit 14,"c(-116.334985, 45.892007)"
22003281,26857,Mule Deer,Male,14,Lower Salmon,NOT DETECTED,0.21,Hunter Harvest,2021-11-09,Dan Comer,1,Unit 14,"c(-116.2339, 45.469477)"
21000273,26864,White-tailed Deer,Male,14,Central Forest,NOT DETECTED,3.23,Hunter Harvest,2021-10-14,Michael Wampler,1,Unit 14,"c(-116.16218, 45.88149)"
22002692,26885,Mule Deer,Male,14,Lower Salmon,NOT DETECTED,1,Hunter Harvest,2021-10-24,George Fischer,1,Unit 14,"c(-116.32226, 45.9582)"
22001465,28876,Mule Deer,Male,14,Lower Salmon,NOT DETECTED,11.42,Suspect,2021-11-03,George Fischer,1,Unit 14,"c(-116.060528, 45.7725)"
22003133,29886,Mule Deer,Male,14,Lower Salmon,NOT DETECTED,1,Hunter Harvest,2021-11-09,Firgens,1,Unit 14,"c(-116.169625, 45.751546)"
22003304,29888,White-tailed Deer,Male,14,Central Forest,NOT DETECTED,3.23,Hunter Harvest,2021-10-31,Haynes/Fischer,1,Unit 14,"c(-116.15831, 45.88372)"
21001550,29890,White-tailed Deer,Male,14,Central Forest,NOT DETECTED,3.23,Hunter Harvest,2021-11-15,Weimer,1,Unit 14,"c(-116.103447, 45.644942)"
19001170,29953,White-tailed Deer,Male,18,Central Forest,NOT DETECTED,3.23,Hunter Harvest,2021-11-18,Rachel Curtis,6,Portion of Unit 18,"c(-116.319964, 45.533977)"
22003036,29954,Mule Deer,Male,14,Lower Salmon,NOT DETECTED,1,Hunter Harvest,2021-11-18,Justin Simmons,1,Unit 14,"c(-116.379, 45.909)"
21001218,29955,Mule Deer,Male,14,Lower Salmon,NOT DETECTED,1,Hunter Harvest,2021-11-18,Rachel Curtis,1,Unit 14,"c(-116.214227, 45.471826)"
21001249,29962,Mule Deer,Male,14,Lower Salmon,NOT DETECTED,0.21,Hunter Harvest,2021-11-18,Michael Young,1,Unit 14,"c(-116.200751, 45.471855)"
21001256,29963,White-tailed Deer,Male,18,Central Forest,NOT DETECTED,3.23,Hunter Harvest,2021-11-18,Michael Young,6,Portion of Unit 18,"c(-116.380669, 45.542354)"
20001801,29967,White-tailed Deer,Female,14,Central Forest,NOT DETECTED,1.3,Hunter Harvest,2021-11-18,Mark Shepard,1,Unit 14,"c(-116.128607, 45.752237)"
22001470,29973,Mule Deer,Male,14,Lower Salmon,Pending,1,Hunter Harvest,2021-11-18,Becca Lyon,1,Unit 14,"c(-116.28256, 45.54737)"
22000929,29975,White-tailed Deer,Male,14,Central Forest,NOT DETECTED,3.23,Hunter Harvest,2021-10-14,Lucas Swanson,1,Unit 14,"c(-116.238931, 45.669574)"
20001975,29977,Mule Deer,Male,14,Lower Salmon,NOT DETECTED,1,Hunter Harvest,2021-11-18,Mark Shepard,1,Unit 14,"c(-116.257471, 45.669214)"
20001974,29978,Mule Deer,Male,14,Lower Salmon,NOT DETECTED,1,Hunter Harvest,2021-11-18,Mark Shepard,1,Unit 14,"c(-116.241165, 45.669319)"
22000996,29982,White-tailed Deer,Male,15,Central Forest,NOT DETECTED,1,Hunter Harvest,2021-11-20,Miranda Reinson,2,Unit 15,"c(-115.956535, 45.864525)"
22000990,29983,White-tailed Deer,Male,15,Central Forest,NOT DETECTED,3.23,Hunter Harvest,2021-11-20,Randy Sullivan,2,Unit 15,"c(-115.736636, 45.821137)"
22000989,29984,White-tailed Deer,Female,15,Central Forest,NOT DETECTED,1.3,Hunter Harvest,2021-11-20,Randy Sullivan,2,Unit 15,"c(-115.940288, 45.92387)"
22000992,29985,White-tailed Deer,Male,15,Central Forest,NOT DETECTED,3.23,Hunter Harvest,2021-11-20,Randy Sullivan,2,Unit 15,"c(-115.943378, 45.94154)"
22003042,29987,Mule Deer,Male,14,Lower Salmon,NOT DETECTED,1,Hunter Harvest,2021-11-13,Kevin Smith,1,Unit 14,"c(-116.259527, 45.497024)"
19001346,29988,White-tailed Deer,Male,18,Central Forest,NOT DETECTED,1,Hunter Harvest,2021-11-19,Peter Ott,6,Portion of Unit 18,"c(-116.39419, 45.54859)"
19001345,29989,Mule Deer,Male,14,Lower Salmon,NOT DETECTED,0.21,Hunter Harvest,2021-11-19,Peter Ott,1,Unit 14,"c(-116.17429, 45.5327)"
21001215,29992,Mule Deer,Male,14,Lower Salmon,NOT DETECTED,0.21,Hunter Harvest,2021-11-19,P Ott,1,Unit 14,"c(-116.150398, 45.733816)"
21001209,29993,White-tailed Deer,Male,14,Central Forest,NOT DETECTED,1,Hunter Harvest,2021-11-19,P Ott,1,Unit 14,"c(-116.158171, 45.644891)"
20001082,29995,White-tailed Deer,Male,14,Central Forest,NOT DETECTED,3.23,Hunter Harvest,2021-11-19,P Ott,1,Unit 14,"c(-116.12484, 45.6496)"
22000146,30001,White-tailed Deer,Male,15,Central Forest,NOT DETECTED,1,Hunter Harvest,2021-11-20,S Dauwalter,2,Unit 15,"c(-115.965108, 45.76363)"
22000135,30006,White-tailed Deer,Male,15,Central Forest,NOT DETECTED,3.23,Hunter Harvest,2021-11-20,Struthers,2,Unit 15,"c(-115.910946, 45.81415)"
22000274,30008,White-tailed Deer,Male,15,Central Forest,NOT DETECTED,1,Hunter Harvest,2021-11-19,J. Struthers,2,Unit 15,"c(-115.961641, 45.987167)"
22000256,30011,Mule Deer,Male,18,Lower Salmon,NOT DETECTED,1,Hunter Harvest,2021-11-19,J. Struthers,6,Portion of Unit 18,"c(-116.381979, 45.536942)"
22000121,30012,Mule Deer,Male,18,Lower Salmon,NOT DETECTED,1,Hunter Harvest,2021-11-20,S Dauwalter,6,Portion of Unit 18,"c(-116.359248, 45.469502)"
22000131,30013,White-tailed Deer,Male,18,Central Forest,NOT DETECTED,3.23,Hunter Harvest,2021-11-20,P Ott,6,Portion of Unit 18,"c(-116.391634, 45.54088)"
22000103,30014,White-tailed Deer,Male,15,Central Forest,NOT DETECTED,3.23,Hunter Harvest,2021-11-19,Wagner,2,Unit 15,"c(-115.456199, 45.792853)"
22000243,30015,White-tailed Deer,Female,14,Central Forest,NOT DETECTED,0.85,Hunter Harvest,2021-11-21,S Dauwalter,1,Unit 14,"c(-116.15573, 45.492923)"
22000109,30016,Mule Deer,Male,15,Bitterroot,NOT DETECTED,1,Hunter Harvest,2021-11-19,J. Struthers,2,Unit 15,"c(-116.036342, 45.887946)"
22000117,30017,White-tailed Deer,Male,15,Central Forest,NOT DETECTED,3.23,Hunter Harvest,2021-11-20,Struthers,2,Unit 15,"c(-115.938255, 45.817215)"
22000122,30018,White-tailed Deer,Male,15,Central Forest,NOT DETECTED,3.23,Hunter Harvest,2021-11-20,P Ott,2,Unit 15,"c(-115.91142, 45.80991)"
22000113,30019,White-tailed Deer,Male,14,Central Forest,NOT DETECTED,3.23,Hunter Harvest,2021-11-20,Struthers,1,Unit 14,"c(-116.208347, 45.855469)"
22000279,30020,White-tailed Deer,Male,15,Central Forest,NOT DETECTED,3.23,Hunter Harvest,2021-11-19,Struthers/ Wagner,2,Unit 15,"c(-115.921308, 45.89044)"
22000247,30021,White-tailed Deer,Male,18,Central Forest,NOT DETECTED,1,Hunter Harvest,2021-11-20,NA,6,Portion of Unit 18,"c(-116.402483, 45.359008)"
22000130,30023,White-tailed Deer,Male,15,Central Forest,NOT DETECTED,1,Hunter Harvest,2021-11-20,J Struthers,2,Unit 15,"c(-116.037158, 45.90951)"
22000147,30024,White-tailed Deer,Female,15,Central Forest,NOT DETECTED,1.3,Hunter Harvest,2021-11-20,Struthers,2,Unit 15,"c(-115.915093, 45.897449)"
22000128,30026,White-tailed Deer,Male,14,Central Forest,NOT DETECTED,3.23,Hunter Harvest,2021-11-20,J Struthers,1,Unit 14,"c(-116.0586463, 45.6111724)"
22000148,30028,White-tailed Deer,Male,14,Central Forest,NOT DETECTED,3.23,Hunter Harvest,2021-11-20,Dauwalter,1,Unit 14,"c(-116.253404, 45.812783)"
22000204,30029,White-tailed Deer,Male,15,Central Forest,NOT DETECTED,3.23,Hunter Harvest,2021-11-19,Wagner/ Struthers,2,Unit 15,"c(-115.921909, 45.893188)"
22000211,30031,White-tailed Deer,Male,15,Central Forest,NOT DETECTED,3.23,Hunter Harvest,2021-11-20,Ott,2,Unit 15,"c(-115.804903, 45.877787)"
22000282,30032,White-tailed Deer,Male,14,Central Forest,NOT DETECTED,3.23,Hunter Harvest,2021-11-19,Struthers,1,Unit 14,"c(-116.088984, 45.827669)"
22000219,30034,White-tailed Deer,Female,14,Central Forest,NOT DETECTED,1.3,Hunter Harvest,2021-11-20,struthers,1,Unit 14,"c(-116.141167, 45.713682)"
22000220,30037,White-tailed Deer,Female,15,Central Forest,NOT DETECTED,1.3,Hunter Harvest,2021-11-20,P Ott,2,Unit 15,"c(-115.615776, 45.844301)"
20001025,30038,Mule Deer,Male,14,Lower Salmon,NOT DETECTED,1,Hunter Harvest,2021-11-19,R. Berkley,1,Unit 14,"c(-116.263912, 45.510041)"
22000251,30039,White-tailed Deer,Male,23,Central Forest,NOT DETECTED,1,Hunter Harvest,2021-11-20,P Ott,3,Portion of Unit 23,"c(-116.333611, 45.256345)"
22000213,30043,White-tailed Deer,Male,14,Central Forest,NOT DETECTED,1,Hunter Harvest,2021-11-20,Struthers,1,Unit 14,"c(-116.246002, 45.808372)"
22000116,30044,White-tailed Deer,Male,14,Central Forest,NOT DETECTED,3.23,Hunter Harvest,2021-11-20,J Struthers,1,Unit 14,"c(-116.251838, 45.793951)"
22000212,30046,White-tailed Deer,Male,15,Central Forest,NOT DETECTED,1,Hunter Harvest,2021-11-20,Struthers,2,Unit 15,"c(-115.913791, 45.963376)"
22000112,30048,Mule Deer,Male,18,Lower Salmon,NOT DETECTED,0.21,Hunter Harvest,2021-11-20,P Ott,6,Portion of Unit 18,"c(-116.40005, 45.439598)"
22000138,30049,White-tailed Deer,Female,18,Central Forest,NOT DETECTED,1.3,Hunter Harvest,2021-11-20,P Ott,6,Portion of Unit 18,"c(-116.408904, 45.551871)"
22000111,30050,White-tailed Deer,Male,18,Central Forest,NOT DETECTED,3.23,Hunter Harvest,2021-11-20,P Ott,6,Portion of Unit 18,"c(-116.364398, 45.441325)"
22000159,30056,White-tailed Deer,Male,15,Central Forest,NOT DETECTED,3.23,Hunter Harvest,2021-11-20,P Ott,2,Unit 15,"c(-115.488637, 45.783326)"
22000124,30058,White-tailed Deer,Male,15,Central Forest,NOT DETECTED,3.23,Hunter Harvest,2021-11-20,S Dauwalter,2,Unit 15,"c(-115.3737725, 45.899057)"
22000132,30060,White-tailed Deer,Male,15,Central Forest,NOT DETECTED,3.23,Hunter Harvest,2021-11-20,Dauwalter,2,Unit 15,"c(-115.960573, 45.824421)"
22000233,30061,White-tailed Deer,Male,15,Central Forest,NOT DETECTED,3.23,Hunter Harvest,2021-11-20,J Struthers,2,Unit 15,"c(-115.537621, 45.87946)"
21001596,30062,White-tailed Deer,Male,14,Central Forest,NOT DETECTED,1,Hunter Harvest,2021-11-18,B. Wagner,1,Unit 14,"c(-116.1734, 45.6333)"
22000244,30063,White-tailed Deer,Male,14,Central Forest,NOT DETECTED,3.23,Hunter Harvest,2021-11-20,Dauwalter,1,Unit 14,"c(-116.290977, 45.769409)"
22000140,30066,White-tailed Deer,Male,15,Central Forest,NOT DETECTED,3.23,Hunter Harvest,2021-11-20,P Ott,2,Unit 15,"c(-116.06027, 45.79887)"
22000245,30067,White-tailed Deer,Male,15,Central Forest,NOT DETECTED,3.23,Hunter Harvest,2021-11-20,P Ott,2,Unit 15,"c(-115.93166, 45.994982)"
22000225,30069,White-tailed Deer,Male,15,Central Forest,NOT DETECTED,3.23,Hunter Harvest,2021-11-20,Ott,2,Unit 15,"c(-115.454543, 45.779825)"
22000153,30070,White-tailed Deer,Female,15,Central Forest,NOT DETECTED,1.3,Hunter Harvest,2021-11-20,P Ott,2,Unit 15,"c(-115.50854, 45.87603)"
22001484,30071,White-tailed Deer,Male,18,Central Forest,NOT DETECTED,3.23,Hunter Harvest,2021-11-15,Bishop #228,6,Portion of Unit 18,"c(-116.32891, 45.617777)"
22000215,30072,White-tailed Deer,Male,15,Central Forest,NOT DETECTED,1,Hunter Harvest,2021-11-20,Struthers,2,Unit 15,"c(-115.803186, 45.850832)"
22000222,30074,White-tailed Deer,Male,15,Central Forest,NOT DETECTED,1,Hunter Harvest,2021-11-20,Dauwalter,2,Unit 15,"c(-115.437364, 45.791986)"
22001485,30076,Mule Deer,Male,14,Lower Salmon,NOT DETECTED,11.42,Suspect,2021-11-07,Bishop #228,1,Unit 14,"c(-116.14338, 45.4799)"
22000110,30080,White-tailed Deer,Male,15,Central Forest,NOT DETECTED,3.23,Hunter Harvest,2021-11-20,S Dauwalter,2,Unit 15,"c(-115.615537, 45.88289)"
22000280,30084,White-tailed Deer,Male,18,Central Forest,NOT DETECTED,3.23,Hunter Harvest,2021-11-19,Borg,6,Portion of Unit 18,"c(-116.352629, 45.446129)"
22000260,30088,White-tailed Deer,Male,15,Central Forest,NOT DETECTED,3.23,Hunter Harvest,2021-11-19,Struthers,2,Unit 15,"c(-115.644323, 45.781693)"
22000238,30089,White-tailed Deer,Male,15,Central Forest,NOT DETECTED,3.23,Hunter Harvest,2021-11-20,P Ott,2,Unit 15,"c(-115.47209, 45.753834)"
22000221,30090,White-tailed Deer,Male,15,Central Forest,NOT DETECTED,1,Hunter Harvest,2021-11-20, Ott,2,Unit 15,"c(-115.537168, 45.792254)"
22000267,30092,White-tailed Deer,Male,15,Central Forest,NOT DETECTED,3.23,Hunter Harvest,2021-11-19,Berkley,2,Unit 15,"c(-115.632478, 45.783668)"
22000231,30093,White-tailed Deer,Female,15,Central Forest,NOT DETECTED,0.85,Hunter Harvest,2021-11-20,Dauwalter,2,Unit 15,"c(-115.942287, 45.95607)"
22000136,30094,White-tailed Deer,Female,15,Central Forest,NOT DETECTED,1.3,Hunter Harvest,2021-11-20,S Dauwalter,2,Unit 15,"c(-115.919404, 45.9082)"
22000268,30095,White-tailed Deer,Male,14,Central Forest,NOT DETECTED,3.23,Hunter Harvest,2021-11-19,M. Haynes / Borg,1,Unit 14,"c(-116.195265, 45.820251)"
22000134,30098,Mule Deer,Male,14,Lower Salmon,NOT DETECTED,1,Hunter Harvest,2021-11-20,S Dauwalter,1,Unit 14,"c(-116.20757, 45.7752)"
22000264,30104,White-tailed Deer,Male,15,Central Forest,NOT DETECTED,3.23,Hunter Harvest,2021-11-19,Wagner,2,Unit 15,"c(-115.920415, 45.895422)"
22000141,30105,White-tailed Deer,Male,15,Central Forest,NOT DETECTED,3.23,Hunter Harvest,2021-11-20,Struthers,2,Unit 15,"c(-115.854026, 45.915477)"
22000232,30106,White-tailed Deer,Male,15,Central Forest,NOT DETECTED,3.23,Hunter Harvest,2021-11-20,S Dauwalter,2,Unit 15,"c(-115.47209, 45.753834)"
22000216,30108,White-tailed Deer,Male,18,Central Forest,NOT DETECTED,3.23,Hunter Harvest,2021-11-20,Dauwalter,6,Portion of Unit 18,"c(-116.423165, 45.405151)"
22000223,30109,White-tailed Deer,Male,15,Central Forest,NOT DETECTED,3.23,Hunter Harvest,2021-11-20,P Ott,2,Unit 15,"c(-115.853346, 45.900341)"
22000163,30110,White-tailed Deer,Male,15,Central Forest,NOT DETECTED,3.23,Hunter Harvest,2021-11-20,Struthers,2,Unit 15,"c(-115.84407, 45.92503)"
22000203,30111,White-tailed Deer,Male,18,Central Forest,NOT DETECTED,1,Hunter Harvest,2021-11-19,Struthers,6,Portion of Unit 18,"c(-116.362757, 45.454077)"
22000108,30112,White-tailed Deer,Male,15,Central Forest,NOT DETECTED,3.23,Hunter Harvest,2021-11-19,NA,2,Unit 15,"c(-115.37067, 45.793414)"
22000133,30118,White-tailed Deer,Male,15,Central Forest,NOT DETECTED,3.23,Hunter Harvest,2021-11-20,Struthers,2,Unit 15,"c(-115.89575, 45.856104)"
22000252,30119,White-tailed Deer,Male,15,Central Forest,NOT DETECTED,3.23,Hunter Harvest,2021-11-19,Struthers,2,Unit 15,"c(-115.81237, 45.827935)"
22000104,30120,White-tailed Deer,Male,18,Central Forest,NOT DETECTED,3.23,Hunter Harvest,2021-11-19,Wagner,6,Portion of Unit 18,"c(-116.416462, 45.529025)"
22000246,30121,White-tailed Deer,Male,15,Central Forest,NOT DETECTED,3.23,Hunter Harvest,2021-11-19,Struthers,2,Unit 15,"c(-115.952748, 45.764565)"
22000259,30125,White-tailed Deer,Male,15,Central Forest,NOT DETECTED,1,Hunter Harvest,2021-11-19,Berkley,2,Unit 15,"c(-115.907025, 45.905243)"
22000261,30126,White-tailed Deer,Male,14,Central Forest,NOT DETECTED,1,Hunter Harvest,2021-11-19,R Berkley,1,Unit 14,"c(-116.105471, 45.665168)"
22000257,30128,White-tailed Deer,Male,14,Central Forest,NOT DETECTED,3.23,Hunter Harvest,2021-11-19,M Wagner,1,Unit 14,"c(-116.122465, 45.63931)"
22000253,30130,White-tailed Deer,Male,15,Central Forest,NOT DETECTED,3.23,Hunter Harvest,2021-11-19,Wagner,2,Unit 15,"c(-115.945437, 45.905955)"
22001423,30138,White-tailed Deer,Male,14,Central Forest,NOT DETECTED,3.23,Hunter Harvest,2021-11-19,Donald Sickels,1,Unit 14,"c(-116.271703, 45.636129)"
22000262,30139,White-tailed Deer,Male,15,Central Forest,NOT DETECTED,1,Hunter Harvest,2021-11-19,N Borg,2,Unit 15,"c(-115.64458, 45.777563)"
171034,30141,White-tailed Deer,Female,13,Northern Ag,NOT DETECTED,0.22,Road Kill,2021-11-19,Ethan Bishop,5,Portion of Unit 13,"c(-116.347709, 45.759927)"
170925,30142,White-tailed Deer,Male,14,Central Forest,NOT DETECTED,3.23,Hunter Harvest,2021-11-19,Donald Sickels,1,Unit 14,"c(-116.116027, 45.74323)"
170928,30143,White-tailed Deer,Male,14,Central Forest,NOT DETECTED,0.22,Road Kill,2021-10-29,Donald Sickels,1,Unit 14,"c(-116.301379, 45.726638)"
19000773,30144,White-tailed Deer,Male,14,Central Forest,NOT DETECTED,3.23,Hunter Harvest,2021-11-21,R walrath,1,Unit 14,"c(-116.132714, 45.809917)"
20002164,30145,White-tailed Deer,Male,13,Northern Ag,NOT DETECTED,3.23,Hunter Harvest,2021-11-21,J. Livingston,5,Portion of Unit 13,"c(-116.355691, 45.763251)"
20002127,30147,White-tailed Deer,Male,15,Central Forest,NOT DETECTED,1,Hunter Harvest,2021-11-21,J. Small,2,Unit 15,"c(-115.457455, 45.727166)"
20001320,30149,White-tailed Deer,Male,15,Central Forest,NOT DETECTED,3.23,Hunter Harvest,2021-11-21,J. Livingston,2,Unit 15,"c(-115.438312, 45.954853)"
170964,30150,White-tailed Deer,Male,14,Central Forest,NOT DETECTED,3.23,Hunter Harvest,2021-11-21,J Livingston,1,Unit 14,"c(-116.230351, 45.731548)"
20002160,30151,White-tailed Deer,Male,14,Central Forest,NOT DETECTED,3.23,Hunter Harvest,2021-11-21,J. Small,1,Unit 14,"c(-116.20401, 45.851295)"
20002162,30152,White-tailed Deer,Male,15,Central Forest,NOT DETECTED,3.23,Hunter Harvest,2021-11-21,J. Small,2,Unit 15,"c(-115.647336, 45.844434)"
20002129,30153,White-tailed Deer,Male,15,Central Forest,NOT DETECTED,3.23,Hunter Harvest,2021-11-21,J.Small,2,Unit 15,"c(-115.549146, 45.83977)"
20002131,30154,White-tailed Deer,Male,15,Central Forest,NOT DETECTED,3.23,Hunter Harvest,2021-11-21,J. Small,2,Unit 15,"c(-115.344065, 45.717668)"
20002128,30156,White-tailed Deer,Male,14,Central Forest,NOT DETECTED,3.23,Hunter Harvest,2021-11-21,J. Livingston,1,Unit 14,"c(-116.164752, 45.634865)"
20002130,30157,White-tailed Deer,Male,15,Central Forest,NOT DETECTED,3.23,Hunter Harvest,2021-11-21,R. McColluch,2,Unit 15,"c(-115.314841, 45.745836)"
19000903,30159,White-tailed Deer,Male,15,Central Forest,NOT DETECTED,3.23,Hunter Harvest,2021-11-19,Small,2,Unit 15,"c(-115.899129, 45.906336)"
170950,30166,White-tailed Deer,Male,15,Central Forest,NOT DETECTED,3.23,Hunter Harvest,2021-11-20,Justin Small,2,Unit 15,"c(-115.930837, 45.844446)"
170948,30168,White-tailed Deer,Female,15,Central Forest,NOT DETECTED,1.3,Hunter Harvest,2021-11-20,Justin Small,2,Unit 15,"c(-115.880488, 45.845023)"
170908,30171,White-tailed Deer,Female,15,Central Forest,Pending,1.3,Hunter Harvest,2021-11-20,Justin Small,2,Unit 15,"c(-116.048166, 45.854919)"
170944,30174,Mule Deer,Male,14,Lower Salmon,NOT DETECTED,1,Hunter Harvest,2021-11-20,Mark Shepard,1,Unit 14,"c(-116.243987, 45.727441)"
170910,30175,White-tailed Deer,Male,14,Central Forest,Pending,3.23,Hunter Harvest,2021-11-20,Mark Shepard,1,Unit 14,"c(-116.122867, 45.637746)"
170906,30178,White-tailed Deer,Male,15,Central Forest,Pending,3.23,Hunter Harvest,2021-11-20,Mark Shepard,2,Unit 15,"c(-115.350229, 45.752257)"
170951,30179,White-tailed Deer,Female,15,Central Forest,NOT DETECTED,1.3,Hunter Harvest,2021-11-20,Justin Small,2,Unit 15,"c(-115.932382, 45.841994)"
170965,30180,White-tailed Deer,Female,14,Central Forest,NOT DETECTED,1.3,Hunter Harvest,2021-11-19,R. Sullivan,1,Unit 14,"c(-116.10671, 45.883808)"
22000920,30181,White-tailed Deer,Male,14,Central Forest,Pending,3.23,Hunter Harvest,2021-11-21,R. Lyon,1,Unit 14,"c(-116.239845, 45.788987)"
170946,30182,Mule Deer,Male,14,Lower Salmon,NOT DETECTED,1,Hunter Harvest,2021-11-20,Mark Shepard,1,Unit 14,"c(-116.17358, 45.742921)"
170907,30184,White-tailed Deer,Male,14,Central Forest,NOT DETECTED,3.23,Hunter Harvest,2021-11-20,Mark Shepard,1,Unit 14,"c(-116.267234, 45.749497)"
22000906,30185,White-tailed Deer,Female,15,Central Forest,NOT DETECTED,1.3,Hunter Harvest,2021-11-13,R. Sullivan,2,Unit 15,"c(-115.921898, 45.861663)"
170943,30186,White-tailed Deer,Male,14,Central Forest,Pending,3.23,Hunter Harvest,2021-11-20,Mark Shepard,1,Unit 14,"c(-116.043902, 45.622381)"
22000921,30187,White-tailed Deer,Male,14,Central Forest,NOT DETECTED,7.32,Found Dead,2021-11-21,R. Lyon,1,Unit 14,"c(-116.249381, 45.755366)"
20002132,30188,White-tailed Deer,Male,14,Central Forest,NOT DETECTED,3.23,Hunter Harvest,2021-11-20,Mark Shepard,1,Unit 14,"c(-116.126986, 45.63485)"
22000907,30189,Mule Deer,Male,18,Lower Salmon,NOT DETECTED,1,Hunter Harvest,2021-11-18,R. Sullivan,6,Portion of Unit 18,"c(-116.398504, 45.404434)"
170905,30190,White-tailed Deer,Male,14,Central Forest,NOT DETECTED,3.23,Hunter Harvest,2021-11-20,Mark Carson,1,Unit 14,"c(-116.128849, 45.686877)"
22000993,30191,White-tailed Deer,Male,14,Central Forest,NOT DETECTED,3.23,Hunter Harvest,2021-11-20,R. Sullivan,1,Unit 14,"c(-116.213966, 45.852789)"
170909,30193,White-tailed Deer,Male,14,Central Forest,NOT DETECTED,3.23,Hunter Harvest,2021-11-20,Mark Shepard,1,Unit 14,"c(-116.10477, 45.815228)"
22000994,30195,White-tailed Deer,Male,14,Central Forest,NOT DETECTED,3.23,Hunter Harvest,2021-11-19,R. Sullivan,1,Unit 14,"c(-116.111871, 45.781957)"
20002133,30196,White-tailed Deer,Male,14,Central Forest,NOT DETECTED,3.23,Hunter Harvest,2021-11-19,M. Reinson,1,Unit 14,"c(-116.261474, 45.804665)"
170945,30197,White-tailed Deer,Male,14,Central Forest,NOT DETECTED,3.23,Hunter Harvest,2021-11-20,Mark Shepard,1,Unit 14,"c(-116.235962, 45.727381)"
20002134,30198,White-tailed Deer,Male,14,Central Forest,NOT DETECTED,3.23,Hunter Harvest,2021-11-19,M. Reinson,1,Unit 14,"c(-116.263674, 45.831203)"
20002107,30200,White-tailed Deer,Male,14,Central Forest,NOT DETECTED,3.23,Hunter Harvest,2021-11-19,M. Reinson,1,Unit 14,"c(-116.044952, 45.652376)"
22000190,30202,White-tailed Deer,Male,23,Central Forest,NOT DETECTED,1,Hunter Harvest,2021-11-21,Struthers,3,Portion of Unit 23,"c(-116.085594, 45.29836)"
22000193,30204,White-tailed Deer,Male,18,Central Forest,NOT DETECTED,3.23,Hunter Harvest,2021-11-21,Struthers,6,Portion of Unit 18,"c(-116.401871, 45.532723)"
22000207,30205,White-tailed Deer,Female,18,Central Forest,NOT DETECTED,1.3,Hunter Harvest,2021-11-21,Ott,6,Portion of Unit 18,"c(-116.45763, 45.383964)"
22000209,30206,White-tailed Deer,Male,18,Central Forest,NOT DETECTED,3.23,Hunter Harvest,2021-11-21,Berkley,6,Portion of Unit 18,"c(-116.406935, 45.54631)"
22000186,30207,White-tailed Deer,Male,18,Central Forest,NOT DETECTED,3.23,Hunter Harvest,2021-11-21,Berkley,6,Portion of Unit 18,"c(-116.400068, 45.551118)"
22000200,30208,White-tailed Deer,Male,18,Central Forest,NOT DETECTED,3.23,Hunter Harvest,2021-11-21,Berkley,6,Portion of Unit 18,"c(-116.364759, 45.628083)"
22000169,30209,White-tailed Deer,Male,15,Central Forest,NOT DETECTED,3.23,Hunter Harvest,2021-11-21,Berkley,2,Unit 15,"c(-116.059278, 45.915382)"
22000198,30210,White-tailed Deer,Male,15,Central Forest,NOT DETECTED,3.23,Hunter Harvest,2021-11-21,Ott,2,Unit 15,"c(-115.898642, 45.821193)"
22000208,30211,White-tailed Deer,Male,15,Central Forest,NOT DETECTED,3.23,Hunter Harvest,2021-11-21,Struthers,2,Unit 15,"c(-115.68569, 45.815593)"
22000162,30212,White-tailed Deer,Male,15,Central Forest,NOT DETECTED,3.23,Hunter Harvest,2021-11-21,Ott,2,Unit 15,"c(-115.853323, 45.820236)"
22000194,30213,White-tailed Deer,Male,15,Central Forest,NOT DETECTED,3.23,Hunter Harvest,2021-11-21,Ott,2,Unit 15,"c(-116.007631, 45.940983)"
22000197,30214,White-tailed Deer,Male,15,Central Forest,NOT DETECTED,3.23,Hunter Harvest,2021-11-21,Ott,2,Unit 15,"c(-115.396085, 45.73415)"
22000170,30215,White-tailed Deer,Male,15,Central Forest,NOT DETECTED,3.23,Hunter Harvest,2021-11-21,Ott,2,Unit 15,"c(-115.89086, 45.83164)"
22000157,30216,Mule Deer,Male,14,Lower Salmon,NOT DETECTED,1,Hunter Harvest,2021-11-21,Ott,1,Unit 14,"c(-116.064416, 45.619199)"
22000218,30218,Mule Deer,Male,14,Lower Salmon,NOT DETECTED,1,Hunter Harvest,2021-11-21,Berkley,1,Unit 14,"c(-116.088706, 45.635826)"
22000210,30219,Mule Deer,Male,14,Lower Salmon,NOT DETECTED,1,Hunter Harvest,2021-11-21,Berkley,1,Unit 14,"c(-116.225919, 45.73406)"
22000182,30220,Mule Deer,Male,14,Lower Salmon,NOT DETECTED,1,Hunter Harvest,2021-11-21,Struthers,1,Unit 14,"c(-115.996823, 45.450133)"
22000189,30221,White-tailed Deer,Male,14,Central Forest,Pending,3.23,Hunter Harvest,2021-11-21,Berkley,1,Unit 14,"c(-116.231528, 45.636786)"
22000173,30222,White-tailed Deer,Male,14,Central Forest,NOT DETECTED,3.23,Hunter Harvest,2021-11-21,Struthers,1,Unit 14,"c(-116.159448, 45.527572)"
22000158,30223,White-tailed Deer,Male,14,Central Forest,NOT DETECTED,3.23,Hunter Harvest,2021-11-21,Ott,1,Unit 14,"c(-116.219374, 45.847851)"
22000192,30224,White-tailed Deer,Male,14,Central Forest,NOT DETECTED,3.23,Hunter Harvest,2021-11-21,Struthers,1,Unit 14,"c(-116.198345, 45.852075)"
22000154,30225,White-tailed Deer,Male,14,Central Forest,NOT DETECTED,3.23,Hunter Harvest,2021-11-21,Struthers,1,Unit 14,"c(-115.960132, 45.603648)"
22000188,30226,White-tailed Deer,Male,14,Central Forest,Pending,3.23,Hunter Harvest,2021-11-21,Berkley,1,Unit 14,"c(-116.238223, 45.638346)"
22003418,30228,White-tailed Deer,Male,15,Central Forest,NOT DETECTED,1,Hunter Harvest,2021-11-21,Ott,2,Unit 15,"c(-115.38119, 45.78648)"
22003417,30231,White-tailed Deer,Female,15,Central Forest,NOT DETECTED,1.3,Hunter Harvest,2021-11-21,Ott,2,Unit 15,"c(-115.386597, 45.790725)"
22003416,30232,White-tailed Deer,Male,15,Central Forest,NOT DETECTED,3.23,Hunter Harvest,2021-11-21,Ott,2,Unit 15,"c(-115.340829, 45.712095)"
22003415,30233,White-tailed Deer,Female,15,Central Forest,NOT DETECTED,1.3,Hunter Harvest,2021-11-21,Berkely,2,Unit 15,"c(-115.819771, 45.862266)"
22003414,30234,Mule Deer,Female,14,Lower Salmon,NOT DETECTED,0.55,Hunter Harvest,2021-11-21,Struthers,1,Unit 14,"c(-116.183017, 45.695298)"
22003413,30235,White-tailed Deer,Male,15,Central Forest,NOT DETECTED,3.23,Hunter Harvest,2021-11-21,Berkley,2,Unit 15,"c(-115.92841, 45.971809)"
22003412,30236,White-tailed Deer,Male,15,Central Forest,NOT DETECTED,3.23,Hunter Harvest,2021-11-21,Struthers,2,Unit 15,"c(-116.086727, 45.910262)"
22003411,30237,White-tailed Deer,Male,14,Central Forest,NOT DETECTED,3.23,Hunter Harvest,2021-11-21,Ott,1,Unit 14,"c(-116.181007, 45.845077)"
22003410,30238,White-tailed Deer,Male,15,Central Forest,NOT DETECTED,1,Hunter Harvest,2021-11-21,Ott,2,Unit 15,"c(-115.3134, 45.707854)"
22003409,30239,White-tailed Deer,Male,14,Central Forest,NOT DETECTED,3.23,Hunter Harvest,2021-10-21,Struthers,1,Unit 14,"c(-116.215454, 45.850711)"
22003408,30240,White-tailed Deer,Female,15,Central Forest,NOT DETECTED,0.85,Hunter Harvest,2021-11-21,Berkley,2,Unit 15,"c(-115.376083, 45.783154)"
22003407,30241,White-tailed Deer,Male,15,Central Forest,NOT DETECTED,3.23,Hunter Harvest,2021-11-21,Ott,2,Unit 15,"c(-115.351343, 45.709779)"
22003406,30242,White-tailed Deer,Female,15,Central Forest,NOT DETECTED,1.3,Hunter Harvest,2021-11-21,Struthers,2,Unit 15,"c(-115.383269, 45.791546)"
22003405,30243,White-tailed Deer,Male,15,Central Forest,NOT DETECTED,1,Hunter Harvest,2021-11-21,Berkley,2,Unit 15,"c(-115.374858, 45.782568)"
22003404,30244,White-tailed Deer,Male,18,Central Forest,NOT DETECTED,3.23,Hunter Harvest,2021-11-21,Struthers,6,Portion of Unit 18,"c(-116.321444, 45.535025)"
21003308,30374,Elk,Female,23,Weiser-McCall,NOT DETECTED,0.15,Hunter Harvest,2021-11-19,Kyle Maki,3,Portion of Unit 23,"c(-116.247122, 45.398051)"
22000954,30380,White-tailed Deer,Female,14,Central Forest,NOT DETECTED,1.3,Hunter Harvest,2021-11-20,George Fischer,1,Unit 14,"c(-116.113757, 45.904577)"
22001429,30381,White-tailed Deer,Male,18,Central Forest,NOT DETECTED,3.23,Hunter Harvest,2021-11-20,George Fischer,6,Portion of Unit 18,"c(-116.40454, 45.401656)"
2002159,30383,White-tailed Deer,Male,15,Central Forest,Pending,3.23,Hunter Harvest,2021-11-22,Jana Livingston,2,Unit 15,"c(-115.389986, 45.752713)"
19000928,31203,Elk,Female,14,Lower Salmon,Pending,0.15,Hunter Harvest,2021-11-22,Justin Small,1,Unit 14,"c(-116.282605, 45.875391)"
19000932,31204,White-tailed Deer,Male,15,Central Forest,NOT DETECTED,3.23,Hunter Harvest,2021-11-22,Justin Jensen,2,Unit 15,"c(-115.918145, 45.881399)"
19000930,31205,White-tailed Deer,Male,15,Central Forest,NOT DETECTED,3.23,Hunter Harvest,2021-11-22,Justin Jensen,2,Unit 15,"c(-115.942521, 45.922014)"
19000908,31207,Elk,Female,14,Lower Salmon,NOT DETECTED,0.15,Hunter Harvest,2021-11-22,Lucas Swanson,1,Unit 14,"c(-116.244064, 45.701218)"
19001331,31224,White-tailed Deer,Male,14,Central Forest,NOT DETECTED,1,Hunter Harvest,2021-11-23,Brian Pearson,1,Unit 14,"c(-116.00002, 45.44595)"
22003009,31226,Mule Deer,Male,14,Lower Salmon,NOT DETECTED,1,Hunter Harvest,2021-11-22,Brian Pearson,1,Unit 14,"c(-116.28226, 45.55017)"
21001542,31227,White-tailed Deer,Male,14,Central Forest,NOT DETECTED,1,Hunter Harvest,2021-11-23,Brian Pearson,1,Unit 14,"c(-116.1774, 45.69159)"
19001335,31228,White-tailed Deer,Male,14,Central Forest,NOT DETECTED,1,Hunter Harvest,2021-11-22,Michael Young,1,Unit 14,"c(-116.194556, 45.850834)"
19001334,31229,Mule Deer,Male,14,Lower Salmon,NOT DETECTED,1,Hunter Harvest,2021-11-22,Michael Young,1,Unit 14,"c(-116.160567, 45.841865)"
19001341,31230,White-tailed Deer,Female,15,Central Forest,NOT DETECTED,1.3,Hunter Harvest,2021-11-22,Mark Lowles,2,Unit 15,"c(-115.905633, 45.906487)"
19001344,31231,White-tailed Deer,Male,15,Central Forest,NOT DETECTED,1,Hunter Harvest,2021-11-22,Mark Lowles,2,Unit 15,"c(-115.427772, 45.830338)"
19001333,31232,White-tailed Deer,Male,15,Central Forest,NOT DETECTED,1,Hunter Harvest,2021-11-23,Brian Pearson,2,Unit 15,"c(-115.387926, 45.748401)"
19001337,31233,White-tailed Deer,Male,14,Central Forest,NOT DETECTED,3.23,Hunter Harvest,2021-11-22,Michael Young,1,Unit 14,"c(-116.19195, 45.839351)"
19001336,31234,White-tailed Deer,Male,18,Central Forest,NOT DETECTED,3.23,Hunter Harvest,2021-11-22,Ryan Walwrath,6,Portion of Unit 18,"c(-116.393662, 45.543066)"
19000927,31240,Elk,Female,14,Lower Salmon,NOT DETECTED,0.15,Hunter Harvest,2021-11-23,Justin Small,1,Unit 14,"c(-116.197091, 45.741201)"
22001491,31241,Elk,Female,14,Lower Salmon,Pending,0.15,Hunter Harvest,2021-11-23,Jana Livingston,1,Unit 14,"c(-116.24703, 45.81851)"
19000929,31242,Mule Deer,Male,23,Weiser-McCall,NOT DETECTED,1,Hunter Harvest,2021-11-23,Josh Bransford,3,Portion of Unit 23,"c(-116.250227, 45.394618)"
19000926,31250,White-tailed Deer,Male,14,Central Forest,NOT DETECTED,1,Hunter Harvest,2021-11-23,Justin Small,1,Unit 14,"c(-116.074025, 45.672056)"
21001460,31254,White-tailed Deer,Male,14,Central Forest,NOT DETECTED,3.23,Hunter Harvest,2021-11-22,K Weimer,1,Unit 14,"c(-116.09568, 45.668434)"
170914,31279,Elk,Female,14,Lower Salmon,NOT DETECTED,0.15,Hunter Harvest,2021-11-21,Joel Sauder,1,Unit 14,"c(-116.222, 45.431)"
170913,31281,Elk,Female,14,Lower Salmon,NOT DETECTED,0.15,Hunter Harvest,2021-11-22,Joel Sauder,1,Unit 14,"c(-116.222, 45.431)"
21000343,31282,Mule Deer,Male,23,Weiser-McCall,NOT DETECTED,1.84,Road Kill,2021-11-24,R. McColloch,3,Portion of Unit 23,"c(-116.356634, 45.355364)"
21000341,31284,White-tailed Deer,Male,15,Central Forest,NOT DETECTED,3.23,Hunter Harvest,2021-11-24,M. Reinson,2,Unit 15,"c(-115.836101, 45.844292)"
22001409,31291,Mule Deer,Male,14,Lower Salmon,NOT DETECTED,0.21,Hunter Harvest,2021-11-26,Dave Beaver,1,Unit 14,"c(-116.18908, 45.6342)"
22000905,31306,White-tailed Deer,Male,15,Central Forest,NOT DETECTED,3.23,Hunter Harvest,2021-11-13,Randy Sullivan,2,Unit 15,"c(-115.864153, 45.918119)"
19001330,31308,White-tailed Deer,Male,14,Central Forest,Pending,3.23,Hunter Harvest,2021-11-23,Brian Pearson,1,Unit 14,"c(-116.00002, 45.44595)"
19001329,31310,White-tailed Deer,Male,14,Central Forest,NOT DETECTED,3.23,Hunter Harvest,2021-11-23,Rachel Curtis,1,Unit 14,"c(-116.121644, 45.63638)"
21003366,31313,White-tailed Deer,Male,14,Central Forest,NOT DETECTED,1,Hunter Harvest,2021-11-26,Rachel Curtis and Casey Pozzanghera,1,Unit 14,"c(-116.19344, 45.63475)"
21003371,31321,White-tailed Deer,Male,15,Central Forest,NOT DETECTED,1,Hunter Harvest,2021-11-26,Huling,2,Unit 15,"c(-115.65306, 45.79772)"
21003367,31322,White-tailed Deer,Male,18,Central Forest,NOT DETECTED,3.23,Hunter Harvest,2021-11-26,M. Port - hunter's mom,6,Portion of Unit 18,"c(-116.33371, 45.53985)"
21003368,31324,White-tailed Deer,Male,15,Central Forest,NOT DETECTED,3.23,Hunter Harvest,2021-11-25,Rachel Curtis,2,Unit 15,"c(-115.63681, 45.8626)"
21001543,31325,White-tailed Deer,Male,14,Central Forest,NOT DETECTED,1,Hunter Harvest,2021-11-23,Brian Pearson,1,Unit 14,"c(-116.17553, 45.81228)"
21003369,31326,White-tailed Deer,Male,15,Central Forest,NOT DETECTED,3.23,Hunter Harvest,2021-11-24,Huling,2,Unit 15,"c(-115.72678, 45.81804)"
170966,31328,White-tailed Deer,Male,15,Central Forest,NOT DETECTED,3.23,Hunter Harvest,2021-11-24,Justin Jensen,2,Unit 15,"c(-115.946604, 45.923762)"
22001447,31329,Elk,Female,14,Lower Salmon,NOT DETECTED,0.15,Hunter Harvest,2021-11-24,Brian Perkes,1,Unit 14,"c(-116.13708, 45.67036)"
20002156,31334,White-tailed Deer,Male,15,Central Forest,NOT DETECTED,3.23,Hunter Harvest,2021-11-24,Ethan Bishop,2,Unit 15,"c(-115.950742, 45.772531)"
22001446,31336,Elk,Female,14,Lower Salmon,NOT DETECTED,0.15,Hunter Harvest,2021-11-24,Brian Perkes,1,Unit 14,"c(-116.13708, 45.67036)"
22001461,31340,Mule Deer,Male,18,Lower Salmon,NOT DETECTED,1,Hunter Harvest,2021-11-29,Mark Shepard,6,Portion of Unit 18,"c(-116.362968, 45.55236)"
21001247,31364,White-tailed Deer,Male,18,Central Forest,NOT DETECTED,3.23,Hunter Harvest,2021-11-19,Steve Lozano,6,Portion of Unit 18,"c(-116.395206, 45.544741)"
22003790,31389,White-tailed Deer,Male,14,Central Forest,NOT DETECTED,3.23,Hunter Harvest,2021-11-29,NA,1,Unit 14,"c(-116.12064, 45.68045)"
22003789,31390,White-tailed Deer,Male,14,Central Forest,Pending,3.23,Hunter Harvest,2021-11-19,Jaxon Bates,1,Unit 14,"c(-116.262716, 45.78385)"
22000667,31398,White-tailed Deer,Male,14,Central Forest,NOT DETECTED,3.23,Hunter Harvest,2021-11-24,Weimer,1,Unit 14,"c(-116.126573, 45.708105)"
22003127,31407,Mule Deer,Male,14,Lower Salmon,NOT DETECTED,1,Hunter Harvest,2021-11-03,Thayn Williams,1,Unit 14,"c(-116.26447, 45.722871)"
22000342,31414,White-tailed Deer,Male,23,Central Forest,NOT DETECTED,3.23,Hunter Harvest,2021-11-23,Berkley,3,Portion of Unit 23,"c(-116.092298, 45.383684)"
21001519,31416,White-tailed Deer,Female,23,Central Forest,NOT DETECTED,33.33,Suspect,2021-10-18,FG 317,3,Portion of Unit 23,"c(-116.316096, 45.310387)"
22003324,31418,White-tailed Deer,Male,14,Central Forest,NOT DETECTED,3.23,Hunter Harvest,2021-11-15,martinez,1,Unit 14,"c(-116.197684, 45.937477)"
22000924,31419,White-tailed Deer,Female,14,Central Forest,Pending,0.85,Found Dead,2021-11-25,Randy Sullivan,1,Unit 14,"c(-116.118942, 45.898362)"
22003134,31421,Elk,Female,14,Lower Salmon,Pending,0.15,Hunter Harvest,2021-11-24,Levi Ewing,1,Unit 14,"c(-116.264603, 45.422315)"
21003375,31440,White-tailed Deer,Male,14,Central Forest,Pending,1,Hunter Harvest,2021-12-01,Ryan Walwrath,1,Unit 14,"c(-116.220134, 45.825838)"
21003393,31441,White-tailed Deer,Male,14,Central Forest,Pending,3.23,Hunter Harvest,2021-12-02,Jamie utz,1,Unit 14,"c(-116.233129, 45.638916)"
21003392,31442,White-tailed Deer,Male,14,Central Forest,Pending,1,Hunter Harvest,2021-12-02,Jamie Utz,1,Unit 14,"c(-116.25982, 45.636976)"
22000065,32450,White-tailed Deer,Male,15,Central forest,Pending,3.23,Hunter Harvest,2021-11-29,Jacob Doyle,2,Unit 15,"c(-115.933688, 45.783198)"
22000668,32454,Elk,Male,14,Lower Salmon,Pending,0.1,Hunter Harvest,2021-12-06,KELLY WEIMER,1,Unit 14,"c(-116.193154, 45.659934)"
22000648,32455,White-tailed Deer,Male,15,Central Forest,Pending,3.23,Hunter Harvest,2021-12-06,ED PAPENBERG,2,Unit 15,"c(-115.645675, 45.91893)"
22000687,32456,White-tailed Deer,Male,15,Central Forest,Pending,3.23,Hunter Harvest,2021-12-06,ED PAPENBERG,2,Unit 15,"c(-115.650568, 45.924931)"
22000680,32458,White-tailed Deer,Male,15,Central Forest,Pending,3.23,Hunter Harvest,2021-12-06,ED PAPENBERG,2,Unit 15,"c(-115.647644, 45.921811)"
22000525,32459,White-tailed Deer,Male,15,Central Forest,Pending,3.23,Hunter Harvest,2021-12-06,ED PAPENBERG,2,Unit 15,"c(-115.646877, 45.920841)"
21001599,32470,Elk,Male,14,Lower Salmon,Pending,0.1,Hunter Harvest,2021-11-27,Alan Trees,1,Unit 14,"c(-116.238043, 45.529548)"
22000075,32478,White-tailed Deer,Male,15,Central Forest,Pending,3.23,Hunter Harvest,2021-10-20,Daniel Swann,2,Unit 15,"c(-115.26715, 45.74629)"
21003388,32480,White-tailed Deer,Female,23,Northern Forest,Pending,1.3,Hunter Harvest,2021-12-08,Mark Lowles,3,Portion of Unit 23,"c(-116.27916, 45.18958)"
22000678,32481,Mule Deer,Female,14,Lower Salmon,Pending,0.55,Hunter Harvest,2021-12-08,Kelly Weimer,1,Unit 14,"c(-116.127516, 45.422793)"
22001482,32510,White-tailed Deer,Female,14,Central Forest,Pending,0.22,Road Kill,2021-12-06,Ethan Bishop,1,Unit 14,"c(-116.292618, 45.648322)"
22001483,32513,Elk,Female,14,Lower Salmon,Pending,0.15,Hunter Harvest,2021-12-06,Ethan Bishop,1,Unit 14,"c(-116.29051, 45.92339)"
22004600,32515,Elk,Female,15,Lower Salmon,Pending,0.15,Hunter Harvest,2021-12-08,Grangeville CS,2,Unit 15,"c(-115.43106, 45.83352)"
21000342,32516,White-tailed Deer,Male,15,Central Forest,Pending,3.23,Hunter Harvest,2021-12-08,Grangeville CS,2,Unit 15,"c(-115.922538, 45.97484)"
22004599,32517,Mule Deer,Female,14,Lower Salmon,Pending,0.55,Hunter Harvest,2021-12-08,Grangeville CS,1,Unit 14,"c(-116.21972, 45.59498)"
22004598,32518,White-tailed Deer,Female,15,Central Forest,Pending,1.3,Hunter Harvest,2021-12-08,Grangeville CS,2,Unit 15,"c(-115.62405, 45.81811)"
22004597,32519,White-tailed Deer,Female,14,Central Forest,Pending,0.85,Hunter Harvest,2021-12-08,Grangeville CS,1,Unit 14,"c(-116.17675, 45.744333)"
22004596,32520,White-tailed Deer,Female,14,Central Forest,Pending,0.85,Hunter Harvest,2021-12-08,Grangeville CS,1,Unit 14,"c(-116.077867, 45.82675)"
22004595,32521,White-tailed Deer,Female,14,Central Forest,Pending,1.3,Hunter Harvest,2021-12-08,Grangeville CS,1,Unit 14,"c(-116.040917, 45.70825)"
22004101,32522,White-tailed Deer,Male,14,Central Forest,Pending,1,Hunter Harvest,2021-12-08,Zac Huling,1,Unit 14,"c(-116.20295, 45.83595)"
22004102,32527,Mule Deer,Female,18,Lower Salmon,Pending,0.55,Hunter Harvest,2021-12-08,B Flack,6,Portion of Unit 18,"c(-116.32806, 45.59723)"
22004134,32529,Mule Deer,Female,18,Weiser-McCall,Pending,0.37,Hunter Harvest,2021-12-08,Flack,6,Portion of Unit 18,"c(-116.474444, 45.366667)"
22004133,32530,White-tailed Deer,Female,23,Central Forest,Pending,1.3,Hunter Harvest,2021-12-08,Huling,3,Portion of Unit 23,"c(-116.04703, 45.42124)"
22004132,32531,Mule Deer,Male,14,Lower Salmon,Pending,1,Hunter Harvest,2021-12-08,Papenburg,1,Unit 14,"c(-116.24135, 45.41234)"
22004135,32532,Mule Deer,Female,18,Weiser-McCall,Pending,0.37,Hunter Harvest,2021-12-08,R Berkley,6,Portion of Unit 18,"c(-116.474167, 45.368889)"
22004105,32533,White-tailed Deer,Female,23,Central Forest,Pending,1.3,Hunter Harvest,2021-12-08,Flack,3,Portion of Unit 23,"c(-116.31387, 45.3082)"
22004106,32534,Mule Deer,Female,14,Lower Salmon,Pending,0.55,Hunter Harvest,2021-12-08,Flack,1,Unit 14,"c(-116.12376, 45.41879)"
21003386,32535,Mule Deer,Female,14,Lower Salmon,Pending,0.55,Hunter Harvest,2021-12-09,Jamie Utz,1,Unit 14,"c(-116.22335, 45.59852)"
20001742,32539,White-tailed Deer,Male,14,Lower Salmon,Pending,3.23,Hunter Harvest,2021-11-22,jpowell,1,Unit 14,"c(-116.180223, 45.6329)"
21003385,32540,Mule Deer,Female,23,Weiser-McCall,Pending,0.55,Hunter Harvest,2021-12-09,Chel Curtis,3,Portion of Unit 23,"c(-116.31782, 45.32227)"
21003316,32549,Mule Deer,Female,14,Lower Salmon,Pending,0.55,Hunter Harvest,2021-12-01,Caryss Barger,1,Unit 14,"c(-116.27982, 45.94637)"
21003310,32551,Mule Deer,Female,14,Lower Salmon,Pending,0.55,Hunter Harvest,2021-12-09,Becca Lyon,1,Unit 14,"c(-116.148881, 45.48148)"
22004138,32553,Mule Deer,Female,14,Lower Salmon,Pending,0.55,Hunter Harvest,2021-12-09,Jamie Mitchell,1,Unit 14,"c(-116.22092, 45.4793)"
22004137,32555,Mule Deer,Female,23,Weiser-McCall,Pending,0.55,Hunter Harvest,2021-12-09,B Wagner,3,Portion of Unit 23,"c(-116.23579, 45.40224)"
22004140,32556,Mule Deer,Female,14,Lower Salmon,Pending,0.55,Hunter Harvest,2021-12-09,J Mitchell,1,Unit 14,"c(-116.12574, 45.41692)"
22004501,32558,Mule Deer,Male,14,Lower Salmon,Pending,1,Hunter Harvest,2021-12-09,B Moore,1,Unit 14,"c(-116.28572, 45.94115)"
22004557,32559,White-tailed Deer,Female,13,Northern Ag,Pending,1.3,Hunter Harvest,2021-12-09,M Pfander,5,Portion of Unit 13,"c(-116.355278, 45.803611)"
22004558,32560,White-tailed Deer,Female,23,Central Forest,Pending,1.3,Hunter Harvest,2021-12-09,M Pfander,3,Portion of Unit 23,"c(-116.084722, 45.404167)"
22004559,32561,White-tailed Deer,Female,23,Central Forest,Pending,1.3,Hunter Harvest,2021-12-09,B Moore,3,Portion of Unit 23,"c(-116.084722, 45.404167)"
22004586,32562,Mule Deer,Female,14,Lower Salmon,Pending,0.55,Hunter Harvest,2021-12-09,M Pfander,1,Unit 14,"c(-116.338056, 45.894444)"
22004585,32563,Mule Deer,Female,14,Lower Salmon,Pending,0.37,Hunter Harvest,2021-12-09,B Moore,1,Unit 14,"c(-116.17795, 45.6622)"
22004588,32564,Mule Deer,Male,14,Lower Salmon,Pending,1,Hunter Harvest,2021-12-09,L Wolf,1,Unit 14,"c(-116.263847, 45.841)"
22004584,32565,Mule Deer,Male,14,Lower Salmon,Pending,1,Hunter Harvest,2021-12-09,B Moore,1,Unit 14,"c(-116.35683, 45.99796)"
22004575,32566,Mule Deer,Female,14,Lower Salmon,Pending,0.55,Hunter Harvest,2021-12-09,M Pfander,1,Unit 14,"c(-116.35683, 45.99796)"
22004580,32567,Mule Deer,Female,14,Lower Salmon,Pending,0.55,Hunter Harvest,2021-12-09,McCollock,1,Unit 14,"c(-116.36267, 46.00102)"
22004583,32568,White-tailed Deer,Female,15,Central Forest,Pending,1.3,Hunter Harvest,2021-12-09,L Wolf,2,Unit 15,"c(-115.628914, 45.818517)"
21001598,32572,Mule Deer,Female,14,Lower Salmon,Pending,0.56,Hunter Harvest,2021-12-10,B. Wagner,1,Unit 14,"c(-115.9644, 45.45853)"
21001600,32573,Mule Deer,Female,18,Lower Salmon,Pending,0.56,Hunter Harvest,2021-12-10,B. Wagner,6,Portion of Unit 18,"c(-116.39075, 45.42339)"
22004201,32574,White-tailed Deer,Male,23,2,Pending,3.23,Hunter Harvest,2021-12-10,Brad Lowe,3,Portion of Unit 23,"c(-116.04097, 45.40305)"
22004151,32575,White-tailed Deer,Female,23,2,Pending,1.3,Hunter Harvest,2021-12-10,Brad Lowe,3,Portion of Unit 23,"c(-116.34117, 45.29052)"
22004142,32576,White-tailed Deer,Male,23,2,Pending,3.23,Hunter Harvest,2021-12-10,Brad Lowe,3,Portion of Unit 23,"c(-116.34377, 45.27346)"
22004143,32577,White-tailed Deer,Female,23,2,Pending,1.3,Hunter Harvest,2021-12-10,R Walrath,3,Portion of Unit 23,"c(-116.35693, 45.29708)"
22004144,32578,White-tailed Deer,Female,23,2,Pending,1.3,Hunter Harvest,2021-12-10,Lowe,3,Portion of Unit 23,"c(-116.32256, 45.3033)"
22004145,32579,White-tailed Deer,Male,23,2,Pending,3.23,Hunter Harvest,2021-12-10,R Walrath,3,Portion of Unit 23,"c(-116.15541, 45.42198)"
22004147,32580,Mule Deer,Female,18,Lower Salmon,Pending,0.55,Hunter Harvest,2021-12-10,Lowe,6,Portion of Unit 18,"c(-116.29952, 45.58294)"
22004148,32581,White-tailed Deer,Female,14,2,Pending,1.3,Hunter Harvest,2021-12-10,Lowe,1,Unit 14,"c(-116.23569, 45.82726)"
22004149,32583,Mule Deer,Female,14,Lower Salmon,Pending,0.55,Hunter Harvest,2021-12-10,Lowe,1,Unit 14,"c(-116.283311, 45.622058)"
22004146,32584,White-tailed Deer,Male,13,3,Pending,3.23,Hunter Harvest,2021-12-10,Lowe,5,Portion of Unit 13,"c(-116.32706, 45.76147)"
22004169,32585,White-tailed Deer,Female,18,2,Pending,1.3,Hunter Harvest,2021-12-10,C Mitchell,6,Portion of Unit 18,"c(-116.390529, 45.407432)"
22004152,32587,White-tailed Deer,Male,18,2,Pending,1,Hunter Harvest,2021-12-10,Lowe,6,Portion of Unit 18,"c(-116.387753, 45.409099)"
22004167,32588,White-tailed Deer,Male,21,5,Pending,3.23,Hunter Harvest,2021-12-10,C. Pozzanghera,3,Portion of Unit 23,"c(-116.06465, 45.41553)"
22004150,32589,White-tailed Deer,Female,23,2,Pending,1.3,Hunter Harvest,2021-12-10,Lowe,3,Portion of Unit 23,"c(-116.34941, 45.30037)"
22004153,32591,White-tailed Deer,Male,23,2,Pending,3.23,Hunter Harvest,2021-12-10,Lowe,3,Portion of Unit 23,"c(-116.15931, 45.41915)"
22004154,32592,Mule Deer,Female,23,Weiser-McCall,Pending,0.55,Hunter Harvest,2021-12-10,Lowe,3,Portion of Unit 23,"c(-116.23267, 45.3991)"
21000233,32593,White-tailed Deer,Male,13,3,Pending,3.23,Hunter Harvest,2021-12-10,Guthrie,5,Portion of Unit 13,"c(-116.32565, 45.78391)"
21000234,32594,White-tailed Deer,Male,13,3,Pending,3.23,Hunter Harvest,2021-12-10,Guthrie,5,Portion of Unit 13,"c(-116.32265, 45.78649)"
22004505,32596,Mule Deer,Male,13,Lower Salmon,Pending,0.21,Hunter Harvest,2021-12-10,Guthrie,5,Portion of Unit 13,"c(-116.336667, 45.801944)"
19000913,32597,White-tailed Deer,Female,15,2,Pending,1.3,Hunter Harvest,2021-12-10,Lucas Swanson,2,Unit 15,"c(-115.806817, 45.837412)"
22004506,32598,Mule Deer,Female,14,Lower Salmon,Pending,0.55,Hunter Harvest,2021-12-10,Merz,1,Unit 14,"c(-116.27201, 45.61571)"
22004507,32599,Mule Deer,Female,14,Lower Salmon,Pending,0.55,Hunter Harvest,2021-12-10,Guthrie,1,Unit 14,"c(-116.19595, 45.69648)"
22004509,32601,Mule Deer,Female,14,Lower Salmon,Pending,0.55,Hunter Harvest,2021-12-10,B Lyon,1,Unit 14,"c(-116.178, 45.633)"
22004510,32602,White-tailed Deer,Female,15,2,Pending,1.3,Hunter Harvest,2021-12-10,L Snoddy,2,Unit 15,"c(-115.638, 45.816)"
22004576,32603,Mule Deer,Female,14,Lower Salmon,Peanding,3.23,Hunter Harvest,2021-12-11,SKD,1,Unit 14,"c(-116.36228, 46.00206)"
22000401,32604,White-tailed Deer,Female,15,2,Pending,1.3,Hunter Harvest,2021-12-11,SKD,2,Unit 15,"c(-115.91651, 45.83298)"
22000402,32605,White-tailed Deer,Male,14,3,Pending,3.23,Hunter Harvest,2021-12-11,SKD,1,Unit 14,"c(-116.23667, 45.53955)"
22000403,32606,Elk,Female,14,Elk City,Pending,0.15,Hunter Harvest,2021-12-11,Logan Peterson,1,Unit 14,"c(-116.24457, 45.7569)"
22000404,32607,Elk,Female,14,Elk City,Pending,0.15,Hunter Harvest,2021-12-11,Reinson,1,Unit 14,"c(-116.245333, 45.742383)"
22000405,32610,Elk,Female,14,Elk City,Pending,0.15,Hunter Harvest,2021-12-11,Guthrie,1,Unit 14,"c(-116.24457, 45.7569)"
22000406,32612,White-tailed Deer,Female,15,2,Pending,1.3,Hunter Harvest,2021-12-11,Guthrie,2,Unit 15,"c(-115.52654, 45.81627)"
22000407,32613,White-tailed Deer,Male,14,2,Pending,3.23,Hunter Harvest,2021-12-11,Peterson,1,Unit 14,"c(-116.203786, 45.629777)"
22000440,32614,Mule Deer,Female,14,Lower Salmon,Pending,0.55,Hunter Harvest,2021-12-11,NA,1,Unit 14,"c(-116.35244, 45.96263)"
22003536,32615,White-tailed Deer,Female,23,2,Pending,1.3,Hunter Harvest,2021-12-11,R. Walrath,3,Portion of Unit 23,"c(-116.02318, 45.40455)"
22003533,32616,White-tailed Deer,Female,23,2,Pending,0.85,Hunter Harvest,2021-12-11,I Hull,3,Portion of Unit 23,"c(-116.35722, 45.30758)"
22004155,32617,White-tailed Deer,Female,23,2,Pending,1.3,Hunter Harvest,2021-12-11,Nicholson,3,Portion of Unit 23,"c(-116.018285, 45.409629)"
22003530,32618,Mule Deer,Female,18,Lower Salmon,Pending,0.55,Hunter Harvest,2021-12-11,R Walrath,6,Portion of Unit 18,"c(-116.35276, 45.54442)"
22004157,32619,White-tailed Deer,Female,14,2,Pending,1.3,Hunter Harvest,2021-12-11,I Hull,1,Unit 14,"c(-116.0812, 45.41552)"
22003532,32621,White-tailed Deer,Female,23,2,Pending,0.85,Hunter Harvest,2021-12-11,I Hull,3,Portion of Unit 23,"c(-116.34945, 45.3004)"
22003531,32622,White-tailed Deer,Female,23,2,Pending,1.3,Hunter Harvest,2021-12-11,I Hull,3,Portion of Unit 23,"c(-116.29998, 45.19361)"
22004156,32623,White-tailed Deer,Female,23,2,Pending,1.3,Hunter Harvest,2021-12-11,Nicholson,3,Portion of Unit 23,"c(-116.05412, 45.41923)"
20002149,32624,Mule Deer,Male,18,Lower Salmon,Pending,1,Hunter Harvest,2021-12-11,Ethan Bishop,6,Portion of Unit 18,"c(-116.30581, 45.62981)"
22003538,32625,Mule Deer,Female,14,Lower Salmon,Pending,0.55,Hunter Harvest,2021-12-11,Struthers,1,Unit 14,"c(-116.29671, 45.56152)"
22003537,32626,Mule Deer,Male,18,Lower Salmon,Pending,1,Hunter Harvest,2021-12-11,I Hull,6,Portion of Unit 18,"c(-116.3029, 45.6311)"
22003523,32627,Mule Deer,Female,14,Lower Salmon,Pending,0.55,Hunter Harvest,2021-12-11,I Hull,1,Unit 14,"c(-116.29671, 45.56152)"
22003534,32628,White-tailed Deer,Female,23,2,Pending,1.3,Hunter Harvest,2021-12-11,Struthers,3,Portion of Unit 23,"c(-116.0612, 45.41551)"
22003529,32629,Mule Deer,Male,23,Weiser-McCall,Pending,1,Hunter Harvest,2021-12-11,I Hull,3,Portion of Unit 23,"c(-116.0723, 45.40269)"
22004177,32630,Elk,Female,14,Elk City,Pending,0.15,Hunter Harvest,2021-12-11,Struthers,1,Unit 14,"c(-116.27153, 45.63542)"
22000437,32632,Mule Deer,Female,14,Lower Salmon,Pending,0.37,Hunter Harvest,2021-12-11,Guthrie,1,Unit 14,"c(-116.35343, 45.90116)"
22000452,32633,Mule Deer,Female,14,Lower Salmon,Pending,0.55,Hunter Harvest,2021-12-11,Locke,1,Unit 14,"c(-116.25333, 45.70728)"
22000451,32634,White-tailed Deer,Female,15,2,Pending,1.3,Hunter Harvest,2021-12-11,Locke,2,Unit 15,"c(-115.67045, 45.82991)"
22000453,32635,Mule Deer,Male,14,Lower Salmon,Pending,1,Hunter Harvest,2021-12-11,Guthrie,1,Unit 14,"c(-116.3591, 45.99578)"
22004594,32636,White-tailed Deer,Female,15,2,Pending,1.3,Hunter Harvest,2021-12-12,B Lyon,2,Unit 15,"c(-115.63364, 45.82339)"
22004593,32637,Mule Deer,Male,14,Lower Salmon,Pending,1,Hunter Harvest,2021-12-12,B Lyon,1,Unit 14,"c(-116.20889, 45.63009)"
22004163,32638,Mule Deer,Female,14,Lower Salmon,Pending,0.55,Hunter Harvest,2021-12-12,Nicholson,1,Unit 14,"c(-116.158112, 45.44329)"
22004592,32639,White-tailed Deer,Male,15,2,Pending,3.23,Hunter Harvest,2021-12-12,L. Petersen,2,Unit 15,"c(-115.63364, 45.82337)"
22004165,32640,White-tailed Deer,Female,14,2,Pending,1.3,Hunter Harvest,2021-12-12,Nicholson,1,Unit 14,"c(-116.2047, 45.42749)"
22000413,32641,Mule Deer,Female,14,Lower Salmon,Pending,0.55,Hunter Harvest,2021-12-12,Locke,1,Unit 14,"c(-116.27948, 45.94327)"
22004589,32642,Mule Deer,Female,14,Lower Salmon,Pending,0.55,Hunter Harvest,2021-12-12,Smutzler,1,Unit 14,"c(-116.16008, 45.45595)"
22004178,32643,White-tailed Deer,Female,15,2,Pending,1.3,Hunter Harvest,2021-12-12,Nicholson,2,Unit 15,"c(-115.63738, 45.81684)"
22004579,32644,Mule Deer,Female,14,Lower Salmon,Pending,0.55,Hunter Harvest,2021-12-12,L. Peterson,1,Unit 14,"c(-116.19608, 45.40388)"
22004172,32646,Mule Deer,Male,14,Lower Salmon,Pending,1,Hunter Harvest,2021-12-12,Switalski,1,Unit 14,"c(-116.27272, 45.61324)"
22000447,32647,Mule Deer,Female,14,Lower Salmon,Pending,NA,Hunter Harvest,2021-12-12,Smutzler,1,Unit 14,"c(-116.15444, 45.44611)"
22000446,32648,Elk,Female,14,Elk City,Pending,0.15,Hunter Harvest,2021-12-12,Locke,1,Unit 14,"c(-116.24588, 45.72128)"
22000449,32649,Mule Deer,Male,18,Lower Salmon,Pending,1,Hunter Harvest,2021-12-12,Dauwalter,6,Portion of Unit 18,"c(-116.355107, 45.37806)"
22000499,32651,White-tailed Deer,Male,15,2,Pending,3.23,Hunter Harvest,2021-12-12,Locke,2,Unit 15,"c(-115.737019, 45.80143)"
22004170,32652,Mule Deer,Female,18,Lower Salmon,Pending,0.55,Hunter Harvest,2021-12-12,Nicholson,6,Portion of Unit 18,"c(-116.317491, 45.431138)"
22000498,32653,White-tailed Deer,Female,13,3,Pending,1.3,Hunter Harvest,2021-12-12,Locke,5,Portion of Unit 13,"c(-116.461205, 45.864014)"
22004591,32654,Mule Deer,Female,14,Lower Salmon,Pending,0.37,Hunter Harvest,2021-12-12,L. Peterson,1,Unit 14,"c(-116.36258, 45.95177)"
22004158,32655,Mule Deer,Female,23,Weiser-McCall,Pending,0.55,Hunter Harvest,2021-12-12,Hull,3,Portion of Unit 23,"c(-116.27696, 45.42039)"
22000471,32656,Mule Deer,Male,14,Lower Salmon,Pending,1,Hunter Harvest,2021-12-12,Smutzler,1,Unit 14,"c(-116.35236, 45.98975)"
22000455,32657,White-tailed Deer,Male,14,2,Pending,1,Hunter Harvest,2021-12-12,Hunter Collected,1,Unit 14,"c(-116.11298, 45.738301)"
22004173,32658,Mule Deer,Female,14,Lower Salmon,Pending,0.55,Hunter Harvest,2021-12-12,Berkley,1,Unit 14,"c(-116.1596, 45.46909)"
22000456,32659,Mule Deer,Male,14,Lower Salmon,Pending,1,Hunter Harvest,2021-12-12,L. Petersen,1,Unit 14,"c(-116.33937, 45.89413)"
22004160,32660,Mule Deer,Female,14,Lower Salmon,Pending,0.55,Hunter Harvest,2021-12-12,Hull,1,Unit 14,"c(-116.15757, 45.44376)"
22000450,32661,Elk,Female,14,Elk City,Pending,0.15,Hunter Harvest,2021-12-12,Perks,1,Unit 14,"c(-116.23445, 45.74025)"
22004161,32662,White-tailed Deer,Male,14,2,Pending,1,Hunter Harvest,2021-12-12,Hull,1,Unit 14,"c(-116.16305, 45.75032)"
22004162,32663,White-tailed Deer,Male,13,3,Pending,1,Hunter Harvest,2021-12-12,Aaron S,5,Portion of Unit 13,"c(-116.412437, 45.78813)"
22000480,32664,Mule Deer,Female,14,Lower Salmon,Pending,0.55,Hunter Harvest,2021-12-12,SKD,1,Unit 14,"c(-116.166389, 45.685)"
22000454,32665,Mule Deer,Female,14,Lower Salmon,Pending,0.55,Hunter Harvest,2021-12-12,L. Petersen,1,Unit 14,"c(-116.36352, 45.95151)"
22000459,32666,Mule Deer,Female,14,Lower Salmon,Pending,0.55,Hunter Harvest,2021-12-12,SKD,1,Unit 14,"c(-116.320832, 45.890556)"
22000435,32667,White-tailed Deer,Female,15,2,Pending,3.23,Hunter Harvest,2021-12-12,Dewit,2,Unit 15,"c(-115.82826, 45.81782)"
22004166,32671,Elk,Female,14,Elk City,Pending,0.15,Hunter Harvest,2021-12-12,Regan B,1,Unit 14,"c(-116.290515, 45.742386)"
22000470,32672,White-tailed Deer,Male,15,2,Pending,3.23,Hunter Harvest,2021-12-12,Dewit,2,Unit 15,"c(-115.72826, 45.81782)"
22004168,32673,Mule Deer,Female,18,Lower Salmon,Pending,0.55,Hunter Harvest,2021-12-12,Regan B,6,Portion of Unit 18,"c(-116.36907, 45.5389)"
22000500,32674,Mule Deer,Female,15,Bitterroot,Pending,0.55,Hunter Harvest,2021-12-12,L Petersen,2,Unit 15,"c(-115.83754, 45.84714)"
22004175,32675,Mule Deer,Male,23,Weiser-McCall,Pending,1,Hunter Harvest,2021-12-12,Switalski,3,Portion of Unit 23,"c(-116.35431, 45.35132)"
22004171,32676,White-tailed Deer,Female,13,3,Pending,1.3,Hunter Harvest,2021-12-12,Switalski,5,Portion of Unit 13,"c(-116.44432, 45.77488)"
22004176,32677,Mule Deer,Male,14,Lower Salmon,Pending,1,Hunter Harvest,2021-12-12,Nicholson,1,Unit 14,"c(-116.31034, 45.80448)"
22004179,32678,White-tailed Deer,Female,14,2,Pending,1.3,Hunter Harvest,2021-12-12,Nicholson,1,Unit 14,"c(-116.15202, 45.43433)"
22004159,32679,Mule Deer,Female,14,Lower Salmon,Pending,0.55,Hunter Harvest,2021-12-12,Struthers,1,Unit 14,"c(-116.15492, 45.465664)"
