Hunt No. Public,Hunt No. Private,Hunt Area,Species,Sex,CWD Hunt Samples Needed
,1951,Portion of Unit 11A,White-tailed Deer,Male,21
,1960,Portion of Unit 11A,White-tailed Deer,Female,43
1901,1952,Portion of Unit 13,Mule Deer,Male,15
1909,1961,Portion of Unit 13,Mule Deer,Female,32
1902,1953,Portion of Unit 13,White-tailed Deer,Male,18
1910,1962,Portion of Unit 13,White-tailed Deer,Female,33
1903,1954,Unit 14,Mule Deer,Male,39
1911,1963,Unit 14,Mule Deer,Female,127
1904,1955,Unit 14,White-tailed Deer,Male,6
1912,1964,Unit 14,White-tailed Deer,Female,117
,,Unit 15,White-tailed Deer,Male,0
1913,,Unit 15,White-tailed Deer,Female,69
1905,1956,Unit 18,Mule Deer,Male,18
1914,1965,Unit 18,Mule Deer,Female,46
1906,1957,Unit 18,White-tailed Deer,Male,4
1915,1966,Unit 18,White-tailed Deer,Female,42
1907,1958,Portion of Unit 23,Mule Deer,Male,6
1916,1967,Portion of Unit 23,Mule Deer,Female,64
1908,1959,Portion of Unit 23,White-tailed Deer,Male,24
1917,1968,Portion of Unit 23,White-tailed Deer,Female,51
